      <contributorName>RESIF Information System</contributorName> 
      <contributorName>RESIF Data Centre</contributorName> 
      
      <contributorName>Ecole et Observatoire des Sciences de la Terre, Strasbourg, France (EOST)</contributorName> 
      <contributorName>Observatoire de la Côte d’Azur, Nice, France (OCA)</contributorName> 
      <contributorName>FR_AT_resif.fr</contributorName> 
     
      <contributorName>Observatoire des Sciences de l'Univers de Grenoble, Grenoble, France (OSUG)</contributorName> 
      <contributorName>Observatoire de la Côte d’Azur, Nice, France (OCA)</contributorName> 
      <contributorName>Institut de Physique du Globe de Paris, Paris, France (IPGP)</contributorName> 
      <contributorName>Observatoire Midi-Pyrénées, Toulouse, France (OMP)</contributorName> 
      <contributorName>Observatoire de Physique du Globe de Clermont-Ferrand, Clermont-Ferrand, France (OPGC)</contributorName> 
      <contributorName>Observatoire de Recherche Méditerranéen de l’EnvironnementMontpellier, France (OREME) </contributorName> 
      <contributorName>Observatoire des Sciences de l'Univers Nantes Atlantique, Nantes, France (OSUNA) </contributorName> 
       <contributorName>Observatoire Volcanologique Du Piton De La Fournaise, La Réunion, France (OVPF / IPGP)</contributorName>
        <contributorName>Observatoire Volcanologique et Sismologique de Guadeloupe, Guadeloupe, France (OVSM / IPGP)</contributorName>
      <contributorName>Institut de Radioprotection et de Sureté Nucléaire, France (IRSN)</contributorName>
      <contributorName>Institut de Recherche pour le Développement, France (IRD)</contributorName>
  
      <contributorName>Centre national de la Recherche Scientifique, France, (CNRS)</contributorName> 
      <contributorName>Institut de Sciences de l'Univers, France (INSU)</contributorName> 
      <contributorName>Commissariat à l'Energie Atomique et aux énergies alternatives, France (CEA)</contributorName> 
      <contributorName>Institut de Physique du Globe de Paris, Paris, France (IPGP)</contributorName> 
      <contributorName>Institut de Physique du Globe de Strasbourg, Strasbourg, France (IPGS)</contributorName> 
     
      <contributorName>Parc d'Instruments sismologiques mobiles terrestres de l' INSU (RESIF-SISMOB)</contributorName>
       
     <contributorName>Institut des Sciences de la Terre, Grenoble, France (ISTERRE)</contributorName> 
     <contributorName>Institut des Géosciences de l’Environnement, Grenoble, France (IGE)</contributorName>
     <contributorName>Gipsa-lab, Grenoble, France (GIPSA-LAB)</contributorName>
       
     <contributorName>Observatoire de la Côte d’Azur, Nice, France (OCA)</contributorName> 
     
     <contributorName>Université Grenoble Alpes, Grenoble, France (UGA)</contributorName> 
     <contributorName>Université de Strasbourg, Strasbourg, France (UNISTRA)</contributorName> 
     <contributorName>Université Paul Sabatier, Toulouse, France (UPS)</contributorName> 
     <contributorName>Université de Nantes, Nantes, France (UNA)</contributorName> 
     <contributorName>Université de Montpellier, Montpellier, France (UM2)</contributorName> 
     <contributorName>Université Blaise Pascal, Clermont-Ferrand, France (UBP)</contributorName> 
     <contributorName>Université de Bretagne Occidentale, Brest, France (UBO)</contributorName>
     <contributorName>Université Savoie Mont-Blanc, Chambéry, France (USMB)</contributorName>
     <contributorName>Ecole Normale Supérieure, Paris, France (ENS) </contributorName>
     <contributorName>Institut Français des Sciences et Technologies des Transports, de l'Aménagement et des Réseaux, Paris, France (IFSTTAR)</contributorName>
       
       
     <contributorName>Laboratoire GeoAzur, Sophia-Antopolis, France (GEOAZUR)</contributorName>     
  		<contributorName>Laboratoire de Géologie de l'Ecole Normale Supérieure, Paris, France</contributorName>
  		
  		
  		<contributorName>Institut de Sciences de l'Univers, France (CNRS-INSU)</contributorName>
  		<contributorName>Centre national de la Recherche Scientifique, France (CNRS)
  		   <contributorName>Centre National des Etudes Spatiales, Toulouse, Fance (CNES)</contributorName>
  		
  		  <contributorName>National Observatory of Athens, Athens, Greece (NOA)</contributorName>

     <contributorName>LabEx stratégies innovantes pour l’observation et la modélisation des systèmes naturels, Grenoble, France (OSUG@2020)</contributorName>
     <contributorName>IDEX Université Grenoble Alpes : université de l’innovation, Grenoble, France</contributorName>
  		  
  		
